<?xml version="1.0" encoding="UTF-8"?>
<svg width="18px" height="18px" viewBox="0 0 18 18" version="1.1" xmlns="http://www.w3.org/2000/svg" xmlns:xlink="http://www.w3.org/1999/xlink">
    <title>055FC027-304A-4C81-B2F5-0869EA354620</title>
    <g id="-" stroke="none" stroke-width="1" fill="none" fill-rule="evenodd">
        <g id="Login" transform="translate(-316.000000, -226.000000)">
            <g id="email-24px" transform="translate(316.000000, 226.000000)">
                <polygon id="Path" points="0 0 18 0 18 18 0 18"></polygon>
                <path d="M16.5,3 L1.5,3 L1.5,15 L16.5,15 L16.5,3 Z M15,6 L9,9.75 L3,6 L3,4.5 L9,8.25 L15,4.5 L15,6 Z" id="Shape" fill="#505266" fill-rule="nonzero" opacity="0.220214844"></path>
            </g>
        </g>
    </g>
</svg>